%YAML 1.1
%TAG !u! tag:unity3d.com,2011:
--- !u!221 &22100000
AnimatorOverrideController:
  m_ObjectHideFlags: 0
  m_PrefabParentObject: {fileID: 0}
  m_PrefabInternal: {fileID: 0}
  m_Name: Player2
  m_Controller: {fileID: 9100000, guid: 067814b7d5c1a3b4780086b40acda508, type: 2}
  m_Clips:
  - m_OriginalClip: {fileID: 7400000, guid: 32a00023fbad4a64fafddc64d50af26a, type: 2}
    m_OverrideClip: {fileID: 7400000, guid: 68a81027d5d8c764f9a7295a1aefb0a0, type: 2}
  - m_OriginalClip: {fileID: 7400000, guid: af2a8e5ac58f9424b94ba24c64d21106, type: 2}
    m_OverrideClip: {fileID: 7400000, guid: c2f21842f65390d4ca616c7625817e95, type: 2}
  - m_OriginalClip: {fileID: 7400000, guid: 1af2fa1cab1deec46a6277117da8c8e8, type: 2}
    m_OverrideClip: {fileID: 7400000, guid: 505104d228f4f3d4a9d8ec986d4b49ee, type: 2}
  - m_OriginalClip: {fileID: 7400000, guid: 0b18a87f197ab1546b739ec57f1d752e, type: 2}
    m_OverrideClip: {fileID: 7400000, guid: e6b116e5059dc7a4296c3be9b62b659e, type: 2}
  - m_OriginalClip: {fileID: 7400000, guid: 77024792e3146a445834fc7a2f5e5500, type: 2}
    m_OverrideClip: {fileID: 7400000, guid: 98f015e259e51cf488fced583f538f93, type: 2}
  - m_OriginalClip: {fileID: 7400000, guid: bb9b67dc07782cb4e927ab044f34a7ee, type: 2}
    m_OverrideClip: {fileID: 7400000, guid: ed1463c17265cfa44a28a37dcb55c03a, type: 2}
  - m_OriginalClip: {fileID: 7400000, guid: fc5531c1a5fa954478cb8408b7defb9e, type: 2}
    m_OverrideClip: {fileID: 7400000, guid: 1646ee77e4edd594ea90a22f95e0fddc, type: 2}
  - m_OriginalClip: {fileID: 7400000, guid: def897251282d9e478f34fe86efbddb1, type: 2}
    m_OverrideClip: {fileID: 7400000, guid: e38cd92949a232844a9a2bb82660c2df, type: 2}
