%YAML 1.1
%TAG !u! tag:unity3d.com,2011:
--- !u!114 &11400000
MonoBehaviour:
  m_ObjectHideFlags: 0
  m_PrefabParentObject: {fileID: 0}
  m_PrefabInternal: {fileID: 0}
  m_GameObject: {fileID: 0}
  m_Enabled: 1
  m_EditorHideFlags: 0
  m_Script: {fileID: 11500000, guid: ed997cee629f7a045afbf054ca1b16c2, type: 3}
  m_Name: YellowBtn
  m_EditorClassIdentifier: 
  m_Sprite: {fileID: 21300000, guid: 0dadbe31fd9bd9c48813a9c6d17feaa4, type: 3}
  m_Color: {r: 1, g: 1, b: 1, a: 1}
  m_Transform:
    e00: 1
    e01: 0
    e02: 0
    e03: 0
    e10: 0
    e11: 1
    e12: 0
    e13: 0
    e20: 0
    e21: 0
    e22: 1
    e23: 0
    e30: 0
    e31: 0
    e32: 0
    e33: 1
  m_InstancedGameObject: {fileID: 1608425401405436, guid: c4f6cb9027d14764aafb11e6cda67296,
    type: 2}
  m_Flags: 4
  m_ColliderType: 0
